{
    "photos": {
        "page": 1,
        "pages": 27845,
        "perpage": 20,
        "total": "556889",
        "photo": [
                  {
                  "id": "27704743990",
                  "owner": "144294896@N05",
                  "secret": "239b807703",
                  "server": "7311",
                  "farm": 8,
                  "title": "1 Greenwood",
                  "ispublic": 1,
                  "isfriend": 0,
                  "isfamily": 0
                  },
                  {
                  "id": "27906903931",
                  "owner": "130886968@N02",
                  "secret": "31dd0a4d0f",
                  "server": "7675",
                  "farm": 8,
                  "title": "I'm in a play!! Come see us tomorrow at 10:30 pm at @diversionarysd. Tell all your friends!! There is a link to tickets in my bio. 📷 cred: @saintsriot",
                  "ispublic": 1,
                  "isfriend": 0,
                  "isfamily": 0
                  },
                  {
                  "id": "27704743950",
                  "owner": "77232988@N02",
                  "secret": "57fbf60bf7",
                  "server": "7256",
                  "farm": 8,
                  "title": "WxTweeter© Image",
                  "ispublic": 1,
                  "isfriend": 0,
                  "isfamily": 0
                  },
                  {
                  "id": "27370847593",
                  "owner": "142071012@N07",
                  "secret": "f2a2276eff",
                  "server": "7321",
                  "farm": 8,
                  "title": "Movers https://t.co/n4FmnReZfh New arrivals and lateral moves in this………………… https://t.co/rGqq6oqlPy https://t.co/CBGN051poD",
                  "ispublic": 1,
                  "isfriend": 0,
                  "isfamily": 0
                  },
                  {
                  "id": "27704743680",
                  "owner": "142011076@N06",
                  "secret": "1a79417492",
                  "server": "7414",
                  "farm": 8,
                  "title": "Watch EXTRACTION Official Trailer (2015) Gina Carano, Bruce Willis Action Movie HD (Full Movie Online)",
                  "ispublic": 1,
                  "isfriend": 0,
                  "isfamily": 0
                  },
                  {
                  "id": "27950163886",
                  "owner": "60107175@N05",
                  "secret": "abddfa7ff1",
                  "server": "7791",
                  "farm": 8,
                  "title": "DSC_6122",
                  "ispublic": 1,
                  "isfriend": 0,
                  "isfamily": 0
                  },
                  {
                  "id": "27371577654",
                  "owner": "109673125@N06",
                  "secret": "d0e2570be4",
                  "server": "7709",
                  "farm": 8,
                  "title": "06_Cubo_de_la_galga_i_costa_nord_126",
                  "ispublic": 1,
                  "isfriend": 0,
                  "isfamily": 0
                  },
                  {
                  "id": "27984541895",
                  "owner": "124155985@N02",
                  "secret": "0d86836f79",
                  "server": "7316",
                  "farm": 8,
                  "title": "IMG_6587.jpg",
                  "ispublic": 1,
                  "isfriend": 0,
                  "isfamily": 0
                  },
                  {
                  "id": "27704742790",
                  "owner": "49487266@N07",
                  "secret": "9532a65fb4",
                  "server": "7118",
                  "farm": 8,
                  "title": "Atlas Negative Image",
                  "ispublic": 1,
                  "isfriend": 0,
                  "isfamily": 0
                  },
                  {
                  "id": "27984541805",
                  "owner": "23896953@N07",
                  "secret": "4bc11036bf",
                  "server": "7260",
                  "farm": 8,
                  "title": "B13Q4083.jpg",
                  "ispublic": 1,
                  "isfriend": 0,
                  "isfamily": 0
                  },
                  {
                  "id": "27882664112",
                  "owner": "24455455@N07",
                  "secret": "b6205e6633",
                  "server": "7385",
                  "farm": 8,
                  "title": "Rechts staat @dim_nl . In de schaduw van de cijfers van Snapchat. #smc040",
                  "ispublic": 1,
                  "isfriend": 0,
                  "isfamily": 0
                  },
                  {
                  "id": "27882664192",
                  "owner": "77232988@N02",
                  "secret": "467acf29cf",
                  "server": "7256",
                  "farm": 8,
                  "title": "WxTweeter© Image",
                  "ispublic": 1,
                  "isfriend": 0,
                  "isfamily": 0
                  },
                  {
                  "id": "27704742330",
                  "owner": "126038286@N07",
                  "secret": "a9199dd019",
                  "server": "7358",
                  "farm": 8,
                  "title": "DSC_1609.jpg",
                  "ispublic": 1,
                  "isfriend": 0,
                  "isfamily": 0
                  },
                  {
                  "id": "27882663932",
                  "owner": "135047624@N06",
                  "secret": "211caaf2d3",
                  "server": "7285",
                  "farm": 8,
                  "title": "",
                  "ispublic": 1,
                  "isfriend": 0,
                  "isfamily": 0
                  },
                  {
                  "id": "27704742070",
                  "owner": "135047624@N06",
                  "secret": "dbeaa40615",
                  "server": "7379",
                  "farm": 8,
                  "title": "",
                  "ispublic": 1,
                  "isfriend": 0,
                  "isfamily": 0
                  },
                  {
                  "id": "27371577034",
                  "owner": "133786919@N03",
                  "secret": "0a58bc208e",
                  "server": "7581",
                  "farm": 8,
                  "title": "Mohn im Korn",
                  "ispublic": 1,
                  "isfriend": 0,
                  "isfamily": 0
                  },
                  {
                  "id": "27370845623",
                  "owner": "75131553@N02",
                  "secret": "742e645f6f",
                  "server": "7514",
                  "farm": 8,
                  "title": "32. Ertinger Infanterietag",
                  "ispublic": 1,
                  "isfriend": 0,
                  "isfamily": 0
                  },
                  {
                  "id": "27882663642",
                  "owner": "136981406@N08",
                  "secret": "e4a5eb98fb",
                  "server": "7713",
                  "farm": 8,
                  "title": "www.Styleseat.com/budthebarber                                              #atlbarber #experience #TheCutlife #ATL #Georgia #Atlbestbarber #Atlantabarber #Midtownatl #Fashion #USA #Style #Hair #Buckhead #Morehouse #CAU #GeorgiaTech #GeorgiaState #Haircut",
                  "ispublic": 1,
                  "isfriend": 0,
                  "isfamily": 0
                  },
                  {
                  "id": "27704741420",
                  "owner": "20579987@N05",
                  "secret": "2bb3a19bb7",
                  "server": "7485",
                  "farm": 8,
                  "title": "IMG_20160629_224245.jpg",
                  "ispublic": 1,
                  "isfriend": 0,
                  "isfamily": 0
                  },
                  {
                  "id": "27371576734",
                  "owner": "24803745@N06",
                  "secret": "3a04e839a4",
                  "server": "7610",
                  "farm": 8,
                  "title": "2016-06-29_02-36-54",
                  "ispublic": 1,
                  "isfriend": 0,
                  "isfamily": 0
                  }
                  ]
    },
    "stat": "ok"
}